﻿<?xml version="1.0" encoding="UTF-8"?>
<TestRun id="770d4af1-de78-4604-a269-2d349b0174db" name="Kurt@KURT-PC 2014-01-11 18:15:26" runUser="Kurt-PC\Kurt" xmlns="http://microsoft.com/schemas/VisualStudio/TeamTest/2010">
  <TestSettings name="Local" id="a5781171-2692-4e4a-8d9d-6bff68024f3b">
    <Description>These are default test settings for a local test run.</Description>
    <Deployment userDeploymentRoot="C:\Users\Kurt\Desktop\acortis-duplicate-file-find-and-delete-se-project-1-4d0228510967\TestResults" useDefaultDeploymentRoot="false" runDeploymentRoot="Kurt_KURT-PC 2014-01-11 18_15_26">
      <DeploymentItem filename="C:\Users\Kurt\Desktop\acortis-duplicate-file-find-and-delete-se-project-1-4d0228510967\DuplicateFileFindAndDelete\bin\Debug\DuplicateFileFindAndDelete.exe" />
      <DeploymentItem filename="C:\Users\Kurt\Desktop\acortis-duplicate-file-find-and-delete-se-project-1-4d0228510967\FileFindAndDeleteLibrary\bin\Debug\FileFindAndDeleteLibrary.dll" />
    </Deployment>
    <Execution>
      <TestTypeSpecific>
        <UnitTestRunConfig testTypeId="13cdc9d9-ddb5-4fa4-a97d-d965ccfc6d4b">
          <AssemblyResolution>
            <TestDirectory useLoadContext="true" />
          </AssemblyResolution>
        </UnitTestRunConfig>
      </TestTypeSpecific>
      <AgentRule name="Execution Agents">
      </AgentRule>
    </Execution>
  </TestSettings>
  <Times creation="2014-01-11T18:15:26.8422734+01:00" queuing="2014-01-11T18:15:29.3383672+01:00" start="2014-01-11T18:15:29.6371953+01:00" finish="2014-01-11T18:16:18.6518437+01:00" />
  <ResultSummary outcome="Error">
    <Counters total="1" executed="1" error="0" failed="0" timeout="0" aborted="1" inconclusive="0" passedButRunAborted="0" notRunnable="0" notExecuted="0" disconnected="0" warning="0" passed="0" completed="0" inProgress="0" pending="0" />
    <RunInfos>
      <RunInfo computerName="KURT-PC" outcome="Error" timestamp="2014-01-11T18:16:18.6430547+01:00">
        <Text>Test host process exited unexpectedly.</Text>
      </RunInfo>
    </RunInfos>
  </ResultSummary>
  <TestDefinitions>
    <UnitTest name="AddFileIconTest2" storage="c:\users\kurt\desktop\acortis-duplicate-file-find-and-delete-se-project-1-4d0228510967\testproject\bin\debug\testproject.dll" id="ded5915e-8a22-5ebe-0080-67ea4844a5da">
      <Execution id="99f808a7-a482-4643-b728-eb81c00c0a3d" />
      <TestMethod codeBase="C:/Users/Kurt/Desktop/acortis-duplicate-file-find-and-delete-se-project-1-4d0228510967/TestProject/bin/Debug/TestProject.DLL" adapterTypeName="Microsoft.VisualStudio.TestTools.TestTypes.Unit.UnitTestAdapter, Microsoft.VisualStudio.QualityTools.Tips.UnitTest.Adapter, Version=10.0.0.0, Culture=neutral, PublicKeyToken=b03f5f7f11d50a3a" className="TestProject.IconListManagerTest, TestProject, Version=1.0.0.0, Culture=neutral, PublicKeyToken=null" name="AddFileIconTest2" />
    </UnitTest>
  </TestDefinitions>
  <TestLists>
    <TestList name="Results Not in a List" id="8c84fa94-04c1-424b-9868-57a2d4851a1d" />
    <TestList name="All Loaded Results" id="19431567-8539-422a-85d7-44ee4e166bda" />
  </TestLists>
  <TestEntries>
    <TestEntry testId="ded5915e-8a22-5ebe-0080-67ea4844a5da" executionId="99f808a7-a482-4643-b728-eb81c00c0a3d" testListId="8c84fa94-04c1-424b-9868-57a2d4851a1d" />
  </TestEntries>
  <Results>
    <UnitTestResult executionId="99f808a7-a482-4643-b728-eb81c00c0a3d" testId="ded5915e-8a22-5ebe-0080-67ea4844a5da" testName="AddFileIconTest2" computerName="KURT-PC" duration="00:00:48.8251954" startTime="2014-01-11T18:15:29.8256718+01:00" endTime="2014-01-11T18:16:18.6508672+01:00" testType="13cdc9d9-ddb5-4fa4-a97d-d965ccfc6d4b" outcome="Aborted" testListId="8c84fa94-04c1-424b-9868-57a2d4851a1d" relativeResultsDirectory="99f808a7-a482-4643-b728-eb81c00c0a3d">
    </UnitTestResult>
  </Results>
</TestRun>