﻿<?xml version="1.0" encoding="UTF-8"?>
<TestRun id="301f4498-fad5-4d2c-bc45-5d7a8ee32f21" name="Kurt@KURT-PC 2014-01-11 18:36:12" runUser="Kurt-PC\Kurt" xmlns="http://microsoft.com/schemas/VisualStudio/TeamTest/2010">
  <TestSettings name="Local" id="a5781171-2692-4e4a-8d9d-6bff68024f3b">
    <Description>These are default test settings for a local test run.</Description>
    <Deployment userDeploymentRoot="C:\Users\Kurt\Desktop\acortis-duplicate-file-find-and-delete-se-project-1-4d0228510967\TestResults" useDefaultDeploymentRoot="false" runDeploymentRoot="Kurt_KURT-PC 2014-01-11 18_36_12">
      <DeploymentItem filename="C:\Users\Kurt\Desktop\acortis-duplicate-file-find-and-delete-se-project-1-4d0228510967\DuplicateFileFindAndDelete\bin\Debug\DuplicateFileFindAndDelete.exe" />
      <DeploymentItem filename="C:\Users\Kurt\Desktop\acortis-duplicate-file-find-and-delete-se-project-1-4d0228510967\FileFindAndDeleteLibrary\bin\Debug\FileFindAndDeleteLibrary.dll" />
    </Deployment>
    <Execution>
      <TestTypeSpecific>
        <UnitTestRunConfig testTypeId="13cdc9d9-ddb5-4fa4-a97d-d965ccfc6d4b">
          <AssemblyResolution>
            <TestDirectory useLoadContext="true" />
          </AssemblyResolution>
        </UnitTestRunConfig>
      </TestTypeSpecific>
      <AgentRule name="Execution Agents">
      </AgentRule>
    </Execution>
  </TestSettings>
  <Times creation="2014-01-11T18:36:12.3110234+01:00" queuing="2014-01-11T18:36:14.0092656+01:00" start="2014-01-11T18:36:14.2182500+01:00" finish="2014-01-11T18:36:40.2045781+01:00" />
  <ResultSummary outcome="Error">
    <Counters total="1" executed="1" error="0" failed="0" timeout="0" aborted="1" inconclusive="0" passedButRunAborted="0" notRunnable="0" notExecuted="0" disconnected="0" warning="0" passed="0" completed="0" inProgress="0" pending="0" />
    <RunInfos>
      <RunInfo computerName="KURT-PC" outcome="Error" timestamp="2014-01-11T18:36:40.2016484+01:00">
        <Text>Test host process exited unexpectedly.</Text>
      </RunInfo>
    </RunInfos>
  </ResultSummary>
  <TestDefinitions>
    <UnitTest name="CompareTest6" storage="c:\users\kurt\desktop\acortis-duplicate-file-find-and-delete-se-project-1-4d0228510967\testproject\bin\debug\testproject.dll" id="e7ccb984-9550-6ae5-8fdd-2677f3bde72b">
      <Execution id="6a6a3452-cd5c-4bc9-9e22-e0e79d09d071" />
      <TestMethod codeBase="C:/Users/Kurt/Desktop/acortis-duplicate-file-find-and-delete-se-project-1-4d0228510967/TestProject/bin/Debug/TestProject.DLL" adapterTypeName="Microsoft.VisualStudio.TestTools.TestTypes.Unit.UnitTestAdapter, Microsoft.VisualStudio.QualityTools.Tips.UnitTest.Adapter, Version=10.0.0.0, Culture=neutral, PublicKeyToken=b03f5f7f11d50a3a" className="TestProject.DateTimeComparerTest, TestProject, Version=1.0.0.0, Culture=neutral, PublicKeyToken=null" name="CompareTest6" />
    </UnitTest>
  </TestDefinitions>
  <TestLists>
    <TestList name="Results Not in a List" id="8c84fa94-04c1-424b-9868-57a2d4851a1d" />
    <TestList name="All Loaded Results" id="19431567-8539-422a-85d7-44ee4e166bda" />
  </TestLists>
  <TestEntries>
    <TestEntry testId="e7ccb984-9550-6ae5-8fdd-2677f3bde72b" executionId="6a6a3452-cd5c-4bc9-9e22-e0e79d09d071" testListId="8c84fa94-04c1-424b-9868-57a2d4851a1d" />
  </TestEntries>
  <Results>
    <UnitTestResult executionId="6a6a3452-cd5c-4bc9-9e22-e0e79d09d071" testId="e7ccb984-9550-6ae5-8fdd-2677f3bde72b" testName="CompareTest6" computerName="KURT-PC" duration="00:00:25.7460938" startTime="2014-01-11T18:36:14.4584843+01:00" endTime="2014-01-11T18:36:40.2045781+01:00" testType="13cdc9d9-ddb5-4fa4-a97d-d965ccfc6d4b" outcome="Aborted" testListId="8c84fa94-04c1-424b-9868-57a2d4851a1d" relativeResultsDirectory="6a6a3452-cd5c-4bc9-9e22-e0e79d09d071">
    </UnitTestResult>
  </Results>
</TestRun>