﻿<?xml version="1.0" encoding="UTF-8"?>
<TestRun id="88982877-d111-414d-8f36-6e2b7c09e1d9" name="Kurt@KURT-PC 2014-01-11 18:14:23" runUser="Kurt-PC\Kurt" xmlns="http://microsoft.com/schemas/VisualStudio/TeamTest/2010">
  <TestSettings name="Local" id="a5781171-2692-4e4a-8d9d-6bff68024f3b">
    <Description>These are default test settings for a local test run.</Description>
    <Deployment runDeploymentRoot="Kurt_KURT-PC 2014-01-11 18_14_23">
      <DeploymentItem filename="C:\Users\Kurt\Desktop\acortis-duplicate-file-find-and-delete-se-project-1-4d0228510967\DuplicateFileFindAndDelete\bin\Debug\DuplicateFileFindAndDelete.exe" />
      <DeploymentItem filename="C:\Users\Kurt\Desktop\acortis-duplicate-file-find-and-delete-se-project-1-4d0228510967\FileFindAndDeleteLibrary\bin\Debug\FileFindAndDeleteLibrary.dll" />
    </Deployment>
    <Execution>
      <TestTypeSpecific>
        <UnitTestRunConfig testTypeId="13cdc9d9-ddb5-4fa4-a97d-d965ccfc6d4b">
          <AssemblyResolution>
            <TestDirectory useLoadContext="true" />
          </AssemblyResolution>
        </UnitTestRunConfig>
      </TestTypeSpecific>
      <AgentRule name="Execution Agents">
      </AgentRule>
    </Execution>
  </TestSettings>
  <Times creation="2014-01-11T18:14:23.3491093+01:00" queuing="2014-01-11T18:14:23.5600468+01:00" start="2014-01-11T18:14:23.6733281+01:00" finish="2014-01-11T18:14:24.8129765+01:00" />
  <ResultSummary outcome="Completed">
    <Counters total="1" executed="1" passed="1" error="0" failed="0" timeout="0" aborted="0" inconclusive="0" passedButRunAborted="0" notRunnable="0" notExecuted="0" disconnected="0" warning="0" completed="0" inProgress="0" pending="0" />
  </ResultSummary>
  <TestDefinitions>
    <UnitTest name="AddFileIconTest1" storage="c:\users\kurt\desktop\acortis-duplicate-file-find-and-delete-se-project-1-4d0228510967\testproject\bin\debug\testproject.dll" id="b0ae534e-4f55-bc93-ebc8-dad9fba9c645">
      <Execution id="cd49962f-cf81-4d18-a94b-1763ef26a641" />
      <TestMethod codeBase="C:/Users/Kurt/Desktop/acortis-duplicate-file-find-and-delete-se-project-1-4d0228510967/TestProject/bin/Debug/TestProject.DLL" adapterTypeName="Microsoft.VisualStudio.TestTools.TestTypes.Unit.UnitTestAdapter, Microsoft.VisualStudio.QualityTools.Tips.UnitTest.Adapter, Version=10.0.0.0, Culture=neutral, PublicKeyToken=b03f5f7f11d50a3a" className="TestProject.IconListManagerTest, TestProject, Version=1.0.0.0, Culture=neutral, PublicKeyToken=null" name="AddFileIconTest1" />
    </UnitTest>
  </TestDefinitions>
  <TestLists>
    <TestList name="Results Not in a List" id="8c84fa94-04c1-424b-9868-57a2d4851a1d" />
    <TestList name="All Loaded Results" id="19431567-8539-422a-85d7-44ee4e166bda" />
  </TestLists>
  <TestEntries>
    <TestEntry testId="b0ae534e-4f55-bc93-ebc8-dad9fba9c645" executionId="cd49962f-cf81-4d18-a94b-1763ef26a641" testListId="8c84fa94-04c1-424b-9868-57a2d4851a1d" />
  </TestEntries>
  <Results>
    <UnitTestResult executionId="cd49962f-cf81-4d18-a94b-1763ef26a641" testId="b0ae534e-4f55-bc93-ebc8-dad9fba9c645" testName="AddFileIconTest1" computerName="KURT-PC" duration="00:00:00.1050921" startTime="2014-01-11T18:14:23.6870000+01:00" endTime="2014-01-11T18:14:24.1469609+01:00" testType="13cdc9d9-ddb5-4fa4-a97d-d965ccfc6d4b" outcome="Passed" testListId="8c84fa94-04c1-424b-9868-57a2d4851a1d" relativeResultsDirectory="cd49962f-cf81-4d18-a94b-1763ef26a641">
    </UnitTestResult>
  </Results>
</TestRun>